module bitbucket.org/snapmartinc/rmq

go 1.12

require (
	github.com/adjust/gocheck v0.0.0-20131111155431-fbc315b36e0e
	github.com/adjust/uniuri v0.0.0-20130923163420-498743145e60
	github.com/go-redis/redis/v8 v8.0.0-beta.1
)
